[
	{
		"secret": null,
		"storage_size": 5919,
		"number_of_slots": null,
		"utc_year": 2020,
		"internal": false,
		"delegatable": null,
		"source": "tz1doL9UveGkayGqsqMMgswLHJgr9zWFgnVt",
		"consumed_gas": 139220,
		"timestamp": 1585763189000,
		"pkh": null,
		"nonce": null,
		"parameters_micheline": "{\"int\":\"6\"}",
		"utc_day": 1,
		"block_level": 311169,
		"branch": null,
		"utc_month": 4,
		"errors": null,
		"balance": null,
		"operation_group_hash": "opXxfwKTm83QBQT5HnyYGj3BK2CPneYgghJJNWBKyjzpYnh6DCx",
		"public_key": null,
		"paid_storage_size_diff": 32,
		"amount": 0,
		"delegate": null,
		"parameters_entrypoints": "approve",
		"utc_time": "17:46:29",
		"proposal": null,
		"block_hash": "BMRYZfisrUhepRN5UX4Qw2Tsc3PN9GdJRgA6YYmonJVDUPdCK5S",
		"spendable": null,
		"cycle": 151,
		"status": "applied",
		"operation_id": 3977254,
		"manager_pubkey": null,
		"slots": null,
		"storage_limit": 6176,
		"ballot_period": null,
		"storage": null,
		"counter": 627200,
		"script": null,
		"kind": "transaction",
		"originated_contracts": null,
		"gas_limit": 139320,
		"parameters": "Pair \"KT1PxBTZFsBd1gUXhkTFpncDTjvrKbmTeHde\" 100",
		"destination": "KT1PuoBCrK7bu9MP7LKZRhjXKZSwvgQkDrCN",
		"ballot": null,
		"period": 151,
		"fee": 14426,
		"level": null
	},
	{
		"secret": null,
		"storage_size": 15430,
		"number_of_slots": null,
		"utc_year": 2020,
		"internal": false,
		"delegatable": null,
		"source": "tz1doL9UveGkayGqsqMMgswLHJgr9zWFgnVt",
		"consumed_gas": 467921,
		"timestamp": 1585763189000,
		"pkh": null,
		"nonce": null,
		"parameters_micheline": "{\"int\":\"6\"}",
		"utc_day": 1,
		"block_level": 311169,
		"branch": null,
		"utc_month": 4,
		"errors": null,
		"balance": null,
		"operation_group_hash": "opXxfwKTm83QBQT5HnyYGj3BK2CPneYgghJJNWBKyjzpYnh6DCx",
		"public_key": null,
		"paid_storage_size_diff": null,
		"amount": 0,
		"delegate": null,
		"parameters_entrypoints": "tokenToXtz",
		"utc_time": "17:46:29",
		"proposal": null,
		"block_hash": "BMRYZfisrUhepRN5UX4Qw2Tsc3PN9GdJRgA6YYmonJVDUPdCK5S",
		"spendable": null,
		"cycle": 151,
		"status": "applied",
		"operation_id": 3977245,
		"manager_pubkey": null,
		"slots": null,
		"storage_limit": 21605,
		"ballot_period": null,
		"storage": null,
		"counter": 627201,
		"script": null,
		"kind": "transaction",
		"originated_contracts": null,
		"gas_limit": 620845,
		"parameters": "Pair (Pair (Pair \"tz1doL9UveGkayGqsqMMgswLHJgr9zWFgnVt\" \"tz1doL9UveGkayGqsqMMgswLHJgr9zWFgnVt\") (Pair 100 3595075)) \"2020-04-01T18:14:28Z\"",
		"destination": "KT1PxBTZFsBd1gUXhkTFpncDTjvrKbmTeHde",
		"ballot": null,
		"period": 151,
		"fee": 62743,
		"level": null
	},
	{
		"secret": null,
		"storage_size": 15430,
		"number_of_slots": null,
		"utc_year": 2020,
		"internal": false,
		"delegatable": null,
		"source": "tz1doL9UveGkayGqsqMMgswLHJgr9zWFgnVt",
		"consumed_gas": 457662,
		"timestamp": 1585763037000,
		"pkh": null,
		"nonce": null,
		"parameters_micheline": "{\"prim\":\"Pair\",\"args\":[{\"prim\":\"Pair\",\"args\":[{\"string\":\"tz1doL9UveGkayGqsqMMgswLHJgr9zWFgnVt\"},{\"int\":\"312\"}]},{\"string\":\"2020-04-01T18:13:48Z\"}]}",
		"utc_day": 1,
		"block_level": 311164,
		"branch": null,
		"utc_month": 4,
		"errors": null,
		"balance": null,
		"operation_group_hash": "ooYTTyRSc2KQP8eUKgTK4xjoRqErQDok5512NdxFW78PJ2kXfji",
		"public_key": null,
		"paid_storage_size_diff": null,
		"amount": 10000000,
		"delegate": null,
		"parameters_entrypoints": "xtzToToken",
		"utc_time": "17:43:57",
		"proposal": null,
		"block_hash": "BLp8be5RcaEcEei1v9U6iXub2MSusrSuDii2EQgj6oJiWX5XpoF",
		"spendable": null,
		"cycle": 151,
		"status": "applied",
		"operation_id": 3977180,
		"manager_pubkey": null,
		"slots": null,
		"storage_limit": 21574,
		"ballot_period": null,
		"storage": null,
		"counter": 627199,
		"script": null,
		"kind": "transaction",
		"originated_contracts": null,
		"gas_limit": 597899,
		"parameters": "Pair (Pair \"tz1doL9UveGkayGqsqMMgswLHJgr9zWFgnVt\" 312) \"2020-04-01T18:13:48Z\"",
		"destination": "KT1PxBTZFsBd1gUXhkTFpncDTjvrKbmTeHde",
		"ballot": null,
		"period": 151,
		"fee": 60480,
		"level": null
	}
]